<svg width="78" height="12" viewBox="0 0 78 12" fill="none" xmlns="http://www.w3.org/2000/svg">
<path d="M8.76152 3.28463C8.87442 3.12719 9.03249 2.96974 9.1454 2.78981V0.810547H0.158069V3.46456H5.01303C4.85497 3.71197 4.65173 3.91439 4.47108 4.13931L0 9.53731V11.5841C3.34202 11.5841 6.05177 11.5616 9.16798 11.5616V8.90755C7.31632 8.90755 6.255 8.90755 4.17753 8.90755L8.76152 3.28463Z" fill="black"/>
<path d="M22.1748 0.810547H19.4199V11.5841H22.1748V0.810547Z" fill="black"/>
<path d="M34.3461 0.810547H32.0202V11.5841H34.7525V5.5338L39.6301 11.5841H41.956V10.2346V0.810547H39.201V6.81582L34.3461 0.810547Z" fill="black"/>
<path d="M58.2144 4.81364C57.9434 4.31882 57.5144 3.91398 57.0176 3.64408C56.0015 3.10428 54.6917 3.23922 53.8111 3.95896C52.8175 4.74616 52.4562 6.18563 52.953 7.3327C53.3143 8.20988 54.1046 8.86214 55.0305 9.06456C56.2498 9.35695 57.6499 8.74968 58.2144 7.6026C59.0499 7.96247 59.8854 8.32234 60.7209 8.7047C60.1112 9.94174 59.0048 10.8864 57.7176 11.3812C56.4982 11.8535 55.1208 11.8985 53.8788 11.4937C52.5917 11.0663 51.4626 10.1892 50.7626 9.04208C50.0852 7.93999 49.8142 6.61297 50.0174 5.35344C50.2884 3.80152 51.2368 2.38454 52.5917 1.55235C53.6756 0.877597 54.9853 0.562717 56.2498 0.697667C58.1015 0.8776 59.8403 2.02467 60.6983 3.68905L58.2144 4.81364Z" fill="black"/>
<path d="M71.4922 9.06474C69.8663 9.06474 68.534 7.78272 68.534 6.18581C68.534 4.58891 69.8663 3.30688 71.4922 3.30688C73.118 3.30688 74.4503 4.58891 74.4503 6.18581C74.4503 7.78272 73.118 9.06474 71.4922 9.06474ZM71.4922 0.630371C68.3308 0.630371 65.7566 3.12694 65.7566 6.2083C65.7566 9.28966 68.3308 11.7862 71.4922 11.7862C74.6536 11.7862 77.2278 9.28966 77.2278 6.2083C77.2278 3.10445 74.6536 0.630371 71.4922 0.630371ZM71.4922 10.0994C73.7052 10.0994 75.4891 8.34501 75.4891 6.18581C75.4891 4.02661 73.7052 2.27226 71.4922 2.27226C69.2792 2.27226 67.4953 4.02661 67.4953 6.18581C67.4953 8.34501 69.2792 10.0994 71.4922 10.0994ZM71.4922 3.30688C73.1406 3.30688 74.4729 4.58891 74.4729 6.18581C74.4729 7.78272 73.1406 9.06474 71.4922 9.06474C69.8438 9.06474 68.5115 7.78272 68.5115 6.18581C68.5115 4.6114 69.8438 3.30688 71.4922 3.30688Z" fill="black"/>
</svg>
