<svg width="107" height="11" viewBox="0 0 107 11" fill="none" xmlns="http://www.w3.org/2000/svg">
<path d="M20.165 5.35311C20.165 3.26139 18.7876 1.64199 16.7553 1.64199C14.7455 1.64199 13.3907 3.26139 13.3907 5.35311C13.3907 7.44484 14.7455 9.01925 16.7553 9.01925C18.8102 9.01925 20.165 7.44484 20.165 5.35311ZM11.6745 5.35311C11.6745 2.38421 13.7068 0.0450812 16.7779 0.0450812C19.8715 0.0225895 21.9038 2.38421 21.9038 5.35311C21.9038 8.27703 19.8715 10.6611 16.7779 10.6611C13.7068 10.6611 11.6745 8.27703 11.6745 5.35311Z" fill="black"/>
<path d="M27.8878 1.7545H25.4491V5.57808H28.0007C29.2427 5.57808 30.146 4.9708 30.146 3.68878C30.146 2.36177 29.2653 1.7545 27.8878 1.7545ZM31.8847 3.66629C31.8847 5.24071 31.0266 6.29782 29.7169 6.79263V6.8826L32.1557 10.1889V10.4363H30.304L27.8652 7.08502H25.4265V10.4363H23.7329V0.247559H27.933C30.3718 0.247559 31.8847 1.55208 31.8847 3.66629Z" fill="black"/>
<path d="M35.6558 5.98293V8.92934H41.2334V10.4138H33.9622V0.247559H41.2334V1.7545H35.6558V4.56596H40.3978V5.98293H35.6558Z" fill="black"/>
<path d="M50.6949 10.4138L44.8238 3.19397V10.4138H43.1527V0.247559H44.4173L50.2658 7.44489V0.247559H51.9594V10.4138H50.6949Z" fill="black"/>
<path d="M60.1564 6.90509L58.2822 2.20434L56.4079 6.90509H60.1564ZM61.5564 10.4138L60.7209 8.32206H55.866L55.0531 10.4138H53.2691L57.4467 0.247559H59.1403L63.3178 10.4138H61.5564Z" fill="black"/>
<path d="M71.8987 1.7545H69.4599V5.57808H71.989C73.231 5.57808 74.1342 4.9708 74.1342 3.68878C74.1568 2.36177 73.2761 1.7545 71.8987 1.7545ZM75.8955 3.66629C75.8955 5.24071 75.0375 6.29782 73.7277 6.79263V6.8826L76.1665 10.1889V10.4363H74.3149L71.8761 7.08502H69.4373V10.4363H67.7437V0.247559H71.9438C74.3826 0.247559 75.8955 1.55208 75.8955 3.66629Z" fill="black"/>
<path d="M85.8087 5.35295C85.8087 3.26123 84.4312 1.64183 82.3989 1.64183C80.3892 1.64183 79.0343 3.26123 79.0343 5.35295C79.0343 7.44468 80.3892 9.01909 82.3989 9.01909C84.4312 9.01909 85.8087 7.44468 85.8087 5.35295ZM77.3181 5.35295C77.3181 2.38406 79.3505 0.0449219 82.4215 0.0449219C85.5151 0.0449219 87.5474 2.40655 87.5474 5.35295C87.5474 8.27687 85.5151 10.661 82.4215 10.661C79.3279 10.661 77.3181 8.27687 77.3181 5.35295Z" fill="black"/>
<path d="M92.5605 9.08663C93.938 9.08663 94.5251 8.50185 94.5251 7.66966C94.5251 6.88245 94.0509 6.50009 92.2218 5.9378C89.9411 5.26305 88.8346 4.49833 88.8346 2.90142C88.8346 1.14707 90.1669 0 92.5831 0C95.1122 0 96.1283 1.03462 96.1283 1.03462L95.2025 2.40661C95.2025 2.40661 94.2315 1.55192 92.5605 1.55192C91.4089 1.55192 90.6637 2.00176 90.6637 2.81146C90.6637 3.5087 91.2056 3.84607 92.9218 4.36338C95.3832 5.06062 96.3767 5.96029 96.3767 7.5347C96.3767 9.26656 95.1348 10.6161 92.5831 10.6161C89.9637 10.6161 88.7217 9.35653 88.7217 9.35653L89.6475 8.097C89.6701 8.11949 90.8669 9.08663 92.5605 9.08663Z" fill="black"/>
<path d="M103.738 6.90509L101.864 2.20434L99.9897 6.90509H103.738ZM105.138 10.4138L104.303 8.32206H99.4478L98.6348 10.4138H96.8509L101.028 0.247559H102.722L106.9 10.4138H105.138Z" fill="black"/>
<path d="M5.1711 9.26659H4.56141L1.67101 3.44125V10.4137H0V0.337402H1.69359L4.87755 6.36517L8.08408 0.337402H9.73251L9.75509 10.4137H8.08408V3.39627L5.1711 9.26659Z" fill="black"/>
</svg>
